<svg xmlns="http://www.w3.org/2000/svg" xmlns:xlink="http://www.w3.org/1999/xlink" width="156.5" height="32.172" viewBox="0 0 156.5 32.172">
  <defs>
    <clipPath id="clip-path">
      <rect width="156.5" height="32.172" fill="none"/>
    </clipPath>
    <linearGradient id="linear-gradient" x1="0.926" y1="0.634" x2="0" y2="1.068" gradientUnits="objectBoundingBox">
      <stop offset="0" stop-color="#00d7ff"/>
      <stop offset="1" stop-color="#5a08ba"/>
    </linearGradient>
  </defs>
  <g id="Logo" clip-path="url(#clip-path)">
    <g id="Group_2" data-name="Group 2" transform="translate(46.004 12.724)">
      <path id="Path_3" data-name="Path 3" d="M191.311,342.166a6.95,6.95,0,0,1,2.283.36,6.612,6.612,0,0,1,1.8.923,4.658,4.658,0,0,1,1.185,1.243,2.615,2.615,0,0,1,.447,1.3.409.409,0,0,1-.126.3.387.387,0,0,1-.281.126H194.07a1.04,1.04,0,0,1-.437-.077,1.452,1.452,0,0,1-.34-.234c-.039-.039-.1-.1-.184-.194a1.793,1.793,0,0,0-.359-.281,2.444,2.444,0,0,0-.583-.253,2.967,2.967,0,0,0-.855-.107,5.1,5.1,0,0,0-.709.048,2.559,2.559,0,0,0-.6.156,1.083,1.083,0,0,0-.428.3.724.724,0,0,0-.165.486.675.675,0,0,0,.184.485,1.679,1.679,0,0,0,.621.36,8.481,8.481,0,0,0,1.156.321q.719.155,1.787.369a10.071,10.071,0,0,1,1.865.544,4.445,4.445,0,0,1,1.331.826,3.123,3.123,0,0,1,.8,1.166,4.325,4.325,0,0,1,.262,1.583,3.483,3.483,0,0,1-.447,1.768,4.075,4.075,0,0,1-1.253,1.331,6.106,6.106,0,0,1-1.9.845,9.335,9.335,0,0,1-2.4.291,7.85,7.85,0,0,1-2.41-.349,6.6,6.6,0,0,1-1.875-.923,4.635,4.635,0,0,1-1.234-1.292,2.872,2.872,0,0,1-.466-1.457.41.41,0,0,1,.126-.3.39.39,0,0,1,.281-.126h2.546a1.091,1.091,0,0,1,.427.068,1.218,1.218,0,0,1,.311.2q.077.078.234.253a2.447,2.447,0,0,0,.417.36,2.614,2.614,0,0,0,.661.321,3.066,3.066,0,0,0,.981.135,5.656,5.656,0,0,0,1.719-.223.834.834,0,0,0,.69-.807.59.59,0,0,0-.253-.485,2.587,2.587,0,0,0-.758-.359,11.308,11.308,0,0,0-1.292-.321q-.787-.155-1.855-.389a5.422,5.422,0,0,1-2.924-1.428,3.784,3.784,0,0,1-.922-2.672,3.518,3.518,0,0,1,.379-1.593,4.059,4.059,0,0,1,1.1-1.341,5.475,5.475,0,0,1,1.739-.923A7.205,7.205,0,0,1,191.311,342.166Z" transform="translate(-185.424 -342.166)" fill="#292331"/>
      <path id="Path_4" data-name="Path 4" d="M224.109,355.383a.353.353,0,0,1,.058.214.431.431,0,0,1-.428.427H220.65a.788.788,0,0,1-.447-.116,1.632,1.632,0,0,1-.349-.33l-3.672-4.624V355.5a.531.531,0,0,1-.525.525h-2.546a.529.529,0,0,1-.524-.525V342.948a.531.531,0,0,1,.524-.525h2.546a.532.532,0,0,1,.525.525v4.1l3.42-4.2q.1-.117.253-.272a.725.725,0,0,1,.525-.156h3.03a.431.431,0,0,1,.428.428.348.348,0,0,1-.058.213l-4.8,5.868Z" transform="translate(-192.05 -342.229)" fill="#292331"/>
      <path id="Path_5" data-name="Path 5" d="M245.391,355.5a.529.529,0,0,1-.525.525h-2.545a.531.531,0,0,1-.525-.525v-4.138l-4.488-8.258a.511.511,0,0,1-.078-.253.431.431,0,0,1,.427-.428h2.662a.794.794,0,0,1,.583.194,1.1,1.1,0,0,1,.233.292l2.448,4.78,2.468-4.78a1.1,1.1,0,0,1,.233-.292.792.792,0,0,1,.583-.194h2.662a.431.431,0,0,1,.427.428.511.511,0,0,1-.078.253l-4.488,8.258Z" transform="translate(-198.061 -342.229)" fill="#292331"/>
      <path id="Path_6" data-name="Path 6" d="M273.851,356.024a.792.792,0,0,1-.534-.175,1.327,1.327,0,0,1-.262-.272l-4.449-6.645V355.5a.531.531,0,0,1-.525.525h-2.545a.529.529,0,0,1-.525-.525V342.948a.531.531,0,0,1,.525-.525h2.02a.8.8,0,0,1,.535.175,1.37,1.37,0,0,1,.262.271l4.45,6.645v-6.567a.531.531,0,0,1,.525-.525h2.545a.532.532,0,0,1,.525.525V355.5a.531.531,0,0,1-.525.525Z" transform="translate(-204.837 -342.229)" fill="#292331"/>
      <path id="Path_7" data-name="Path 7" d="M302.139,352.916a.531.531,0,0,1,.525.524v2.06a.531.531,0,0,1-.525.525h-9.21a.531.531,0,0,1-.525-.525V342.948a.532.532,0,0,1,.525-.525h9.054a.532.532,0,0,1,.525.525v2.06a.531.531,0,0,1-.525.525H296v2.1h5.557a.531.531,0,0,1,.525.524v2.06a.531.531,0,0,1-.525.525H296v2.177Z" transform="translate(-211.519 -342.229)" fill="#292331"/>
      <path id="Path_8" data-name="Path 8" d="M327.34,342.423a.532.532,0,0,1,.525.525v2.06a.531.531,0,0,1-.525.525h-3.42V355.5a.531.531,0,0,1-.525.525H320.85a.529.529,0,0,1-.525-.525v-9.967h-3.42a.531.531,0,0,1-.525-.525v-2.06a.532.532,0,0,1,.525-.525Z" transform="translate(-217.368 -342.229)" fill="#292331"/>
    </g>
    <path id="Union_1" data-name="Union 1" d="M-7.885,319.267a5.322,5.322,0,0,1-5.307-5.306,5.356,5.356,0,0,1,4.776-5.307,6.471,6.471,0,0,1,5.837-3.538,6.657,6.657,0,0,1,6.546,5.307,4.5,4.5,0,0,1,4.068,4.423,4.379,4.379,0,0,1-4.423,4.422ZM4.907,305.24a1.415,1.415,0,0,1-1-.426,9.42,9.42,0,0,0-6.78-2.856,9.431,9.431,0,0,0-6.656,2.732,1.415,1.415,0,0,1-2-.016,1.414,1.414,0,0,1,.015-2,12.246,12.246,0,0,1,8.642-3.545,12.2,12.2,0,0,1,7.744,2.741l1.706-1.706a14.6,14.6,0,0,0-9.45-3.434,14.627,14.627,0,0,0-10.353,4.26,1.416,1.416,0,0,1-2-.005l-4.1-4.106a1.414,1.414,0,0,1-.415-1,1.42,1.42,0,0,1,.419-1A23.208,23.208,0,0,1-2.875,288.1a23.183,23.183,0,0,1,16.6,6.931,1.414,1.414,0,0,1-2.011,1.989,20.381,20.381,0,0,0-14.589-6.09,20.377,20.377,0,0,0-13.415,4.991l2.111,2.111a17.424,17.424,0,0,1,11.3-4.126,17.423,17.423,0,0,1,12.5,5.232,1.414,1.414,0,0,1-.007,1.993l-3.7,3.7a1.414,1.414,0,0,1-1,.414Z" transform="translate(20.243 -287.595)" stroke="rgba(0,0,0,0)" stroke-width="1" fill="url(#linear-gradient)"/>
  </g>
</svg>
