<svg id="pattern-round" xmlns="http://www.w3.org/2000/svg" width="453.156" height="453.156" viewBox="0 0 453.156 453.156">
  <g id="Group_26" data-name="Group 26" transform="matrix(0.966, -0.259, 0.259, 0.966, -1473.809, -1069.492)" opacity="0.199">
    <circle id="Ellipse_23" data-name="Ellipse 23" cx="4.485" cy="4.485" r="4.485" transform="translate(1122 1507)" fill="#00d7ff"/>
    <circle id="Ellipse_23-2" data-name="Ellipse 23" cx="4.485" cy="4.485" r="4.485" transform="translate(1173.576 1507)" fill="#00d7ff"/>
    <circle id="Ellipse_23-3" data-name="Ellipse 23" cx="4.485" cy="4.485" r="4.485" transform="translate(1225.151 1507)" fill="#00d7ff"/>
    <circle id="Ellipse_23-4" data-name="Ellipse 23" cx="4.485" cy="4.485" r="4.485" transform="translate(1276.727 1507)" fill="#00d7ff"/>
    <circle id="Ellipse_23-5" data-name="Ellipse 23" cx="4.485" cy="4.485" r="4.485" transform="translate(1328.303 1507)" fill="#00d7ff"/>
    <circle id="Ellipse_23-6" data-name="Ellipse 23" cx="4.485" cy="4.485" r="4.485" transform="translate(1379.879 1507)" fill="#00d7ff"/>
    <circle id="Ellipse_23-7" data-name="Ellipse 23" cx="4.485" cy="4.485" r="4.485" transform="translate(1122 1558.576)" fill="#00d7ff"/>
    <circle id="Ellipse_23-8" data-name="Ellipse 23" cx="4.485" cy="4.485" r="4.485" transform="translate(1173.576 1558.576)" fill="#00d7ff"/>
    <circle id="Ellipse_23-9" data-name="Ellipse 23" cx="4.485" cy="4.485" r="4.485" transform="translate(1225.151 1558.576)" fill="#00d7ff"/>
    <circle id="Ellipse_23-10" data-name="Ellipse 23" cx="4.485" cy="4.485" r="4.485" transform="translate(1276.727 1558.576)" fill="#00d7ff"/>
    <circle id="Ellipse_23-11" data-name="Ellipse 23" cx="4.485" cy="4.485" r="4.485" transform="translate(1328.303 1558.576)" fill="#00d7ff"/>
    <circle id="Ellipse_23-12" data-name="Ellipse 23" cx="4.485" cy="4.485" r="4.485" transform="translate(1379.879 1558.576)" fill="#00d7ff"/>
    <circle id="Ellipse_23-13" data-name="Ellipse 23" cx="4.485" cy="4.485" r="4.485" transform="translate(1122 1610.151)" fill="#00d7ff"/>
    <circle id="Ellipse_23-14" data-name="Ellipse 23" cx="4.485" cy="4.485" r="4.485" transform="translate(1173.576 1610.151)" fill="#00d7ff"/>
    <circle id="Ellipse_23-15" data-name="Ellipse 23" cx="4.485" cy="4.485" r="4.485" transform="translate(1225.151 1610.151)" fill="#00d7ff"/>
    <circle id="Ellipse_23-16" data-name="Ellipse 23" cx="4.485" cy="4.485" r="4.485" transform="translate(1276.727 1610.151)" fill="#00d7ff"/>
    <circle id="Ellipse_23-17" data-name="Ellipse 23" cx="4.485" cy="4.485" r="4.485" transform="translate(1328.303 1610.151)" fill="#00d7ff"/>
    <circle id="Ellipse_23-18" data-name="Ellipse 23" cx="4.485" cy="4.485" r="4.485" transform="translate(1379.879 1610.151)" fill="#00d7ff"/>
    <circle id="Ellipse_23-19" data-name="Ellipse 23" cx="4.485" cy="4.485" r="4.485" transform="translate(1122 1661.727)" fill="#00d7ff"/>
    <circle id="Ellipse_23-20" data-name="Ellipse 23" cx="4.485" cy="4.485" r="4.485" transform="translate(1173.576 1661.727)" fill="#00d7ff"/>
    <circle id="Ellipse_23-21" data-name="Ellipse 23" cx="4.485" cy="4.485" r="4.485" transform="translate(1225.151 1661.727)" fill="#00d7ff"/>
    <circle id="Ellipse_23-22" data-name="Ellipse 23" cx="4.485" cy="4.485" r="4.485" transform="translate(1276.727 1661.727)" fill="#00d7ff"/>
    <circle id="Ellipse_23-23" data-name="Ellipse 23" cx="4.485" cy="4.485" r="4.485" transform="translate(1328.303 1661.727)" fill="#00d7ff"/>
    <circle id="Ellipse_23-24" data-name="Ellipse 23" cx="4.485" cy="4.485" r="4.485" transform="translate(1379.879 1661.727)" fill="#00d7ff"/>
    <circle id="Ellipse_23-25" data-name="Ellipse 23" cx="4.485" cy="4.485" r="4.485" transform="translate(1122 1713.303)" fill="#00d7ff"/>
    <circle id="Ellipse_23-26" data-name="Ellipse 23" cx="4.485" cy="4.485" r="4.485" transform="translate(1173.576 1713.303)" fill="#00d7ff"/>
    <circle id="Ellipse_23-27" data-name="Ellipse 23" cx="4.485" cy="4.485" r="4.485" transform="translate(1225.151 1713.303)" fill="#00d7ff"/>
    <circle id="Ellipse_23-28" data-name="Ellipse 23" cx="4.485" cy="4.485" r="4.485" transform="translate(1276.727 1713.303)" fill="#00d7ff"/>
    <circle id="Ellipse_23-29" data-name="Ellipse 23" cx="4.485" cy="4.485" r="4.485" transform="translate(1328.303 1713.303)" fill="#00d7ff"/>
    <circle id="Ellipse_23-30" data-name="Ellipse 23" cx="4.485" cy="4.485" r="4.485" transform="translate(1379.879 1713.303)" fill="#00d7ff"/>
    <circle id="Ellipse_23-31" data-name="Ellipse 23" cx="4.485" cy="4.485" r="4.485" transform="translate(1122 1764.879)" fill="#00d7ff"/>
    <circle id="Ellipse_23-32" data-name="Ellipse 23" cx="4.485" cy="4.485" r="4.485" transform="translate(1173.576 1764.879)" fill="#00d7ff"/>
    <circle id="Ellipse_23-33" data-name="Ellipse 23" cx="4.485" cy="4.485" r="4.485" transform="translate(1225.151 1764.879)" fill="#00d7ff"/>
    <circle id="Ellipse_23-34" data-name="Ellipse 23" cx="4.485" cy="4.485" r="4.485" transform="translate(1276.727 1764.879)" fill="#00d7ff"/>
    <circle id="Ellipse_23-35" data-name="Ellipse 23" cx="4.485" cy="4.485" r="4.485" transform="translate(1328.303 1764.879)" fill="#00d7ff"/>
    <circle id="Ellipse_23-36" data-name="Ellipse 23" cx="4.485" cy="4.485" r="4.485" transform="translate(1379.879 1764.879)" fill="#00d7ff"/>
    <circle id="Ellipse_23-37" data-name="Ellipse 23" cx="4.485" cy="4.485" r="4.485" transform="translate(1122 1816.455)" fill="#00d7ff"/>
    <circle id="Ellipse_23-38" data-name="Ellipse 23" cx="4.485" cy="4.485" r="4.485" transform="translate(1173.576 1816.455)" fill="#00d7ff"/>
    <circle id="Ellipse_23-39" data-name="Ellipse 23" cx="4.485" cy="4.485" r="4.485" transform="translate(1225.151 1816.455)" fill="#00d7ff"/>
    <circle id="Ellipse_23-40" data-name="Ellipse 23" cx="4.485" cy="4.485" r="4.485" transform="translate(1276.727 1816.455)" fill="#00d7ff"/>
    <circle id="Ellipse_23-41" data-name="Ellipse 23" cx="4.485" cy="4.485" r="4.485" transform="translate(1328.303 1816.455)" fill="#00d7ff"/>
    <circle id="Ellipse_23-42" data-name="Ellipse 23" cx="4.485" cy="4.485" r="4.485" transform="translate(1379.879 1816.455)" fill="#00d7ff"/>
    <circle id="Ellipse_23-43" data-name="Ellipse 23" cx="4.485" cy="4.485" r="4.485" transform="translate(1122 1868.03)" fill="#00d7ff"/>
    <circle id="Ellipse_23-44" data-name="Ellipse 23" cx="4.485" cy="4.485" r="4.485" transform="translate(1173.576 1868.03)" fill="#00d7ff"/>
    <circle id="Ellipse_23-45" data-name="Ellipse 23" cx="4.485" cy="4.485" r="4.485" transform="translate(1225.151 1868.03)" fill="#00d7ff"/>
    <circle id="Ellipse_23-46" data-name="Ellipse 23" cx="4.485" cy="4.485" r="4.485" transform="translate(1276.727 1868.03)" fill="#00d7ff"/>
    <circle id="Ellipse_23-47" data-name="Ellipse 23" cx="4.485" cy="4.485" r="4.485" transform="translate(1328.303 1868.03)" fill="#00d7ff"/>
    <circle id="Ellipse_23-48" data-name="Ellipse 23" cx="4.485" cy="4.485" r="4.485" transform="translate(1379.879 1868.03)" fill="#00d7ff"/>
    <circle id="Ellipse_23-49" data-name="Ellipse 23" cx="4.485" cy="4.485" r="4.485" transform="translate(1431.455 1507)" fill="#00d7ff"/>
    <circle id="Ellipse_23-50" data-name="Ellipse 23" cx="4.485" cy="4.485" r="4.485" transform="translate(1483.03 1507)" fill="#00d7ff"/>
    <circle id="Ellipse_23-51" data-name="Ellipse 23" cx="4.485" cy="4.485" r="4.485" transform="translate(1431.455 1558.576)" fill="#00d7ff"/>
    <circle id="Ellipse_23-52" data-name="Ellipse 23" cx="4.485" cy="4.485" r="4.485" transform="translate(1483.03 1558.576)" fill="#00d7ff"/>
    <circle id="Ellipse_23-53" data-name="Ellipse 23" cx="4.485" cy="4.485" r="4.485" transform="translate(1431.455 1610.151)" fill="#00d7ff"/>
    <circle id="Ellipse_23-54" data-name="Ellipse 23" cx="4.485" cy="4.485" r="4.485" transform="translate(1483.03 1610.151)" fill="#00d7ff"/>
    <circle id="Ellipse_23-55" data-name="Ellipse 23" cx="4.485" cy="4.485" r="4.485" transform="translate(1431.455 1661.727)" fill="#00d7ff"/>
    <circle id="Ellipse_23-56" data-name="Ellipse 23" cx="4.485" cy="4.485" r="4.485" transform="translate(1483.03 1661.727)" fill="#00d7ff"/>
    <circle id="Ellipse_23-57" data-name="Ellipse 23" cx="4.485" cy="4.485" r="4.485" transform="translate(1431.455 1713.303)" fill="#00d7ff"/>
    <circle id="Ellipse_23-58" data-name="Ellipse 23" cx="4.485" cy="4.485" r="4.485" transform="translate(1483.03 1713.303)" fill="#00d7ff"/>
    <circle id="Ellipse_23-59" data-name="Ellipse 23" cx="4.485" cy="4.485" r="4.485" transform="translate(1431.455 1764.879)" fill="#00d7ff"/>
    <circle id="Ellipse_23-60" data-name="Ellipse 23" cx="4.485" cy="4.485" r="4.485" transform="translate(1483.03 1764.879)" fill="#00d7ff"/>
    <circle id="Ellipse_23-61" data-name="Ellipse 23" cx="4.485" cy="4.485" r="4.485" transform="translate(1431.455 1816.455)" fill="#00d7ff"/>
    <circle id="Ellipse_23-62" data-name="Ellipse 23" cx="4.485" cy="4.485" r="4.485" transform="translate(1483.03 1816.455)" fill="#00d7ff"/>
    <circle id="Ellipse_23-63" data-name="Ellipse 23" cx="4.485" cy="4.485" r="4.485" transform="translate(1431.455 1868.03)" fill="#00d7ff"/>
    <circle id="Ellipse_23-64" data-name="Ellipse 23" cx="4.485" cy="4.485" r="4.485" transform="translate(1483.03 1868.03)" fill="#00d7ff"/>
  </g>
</svg>
